{
  "variables": {
    "iso_url": "http://mirrors.mit.edu/centos/7/isos/x86_64/CentOS-7-x86_64-Minimal-1804.iso",
    "iso_checksum": "714acc0aefb32b7d51b515e25546835e55a90da9fb00417fbee2d03a62801efd",
    "iso_checksum_type": "sha256",
    "redhat_release": "7.4",
    "redhat_platform": "x86_64",
    "artifact_description": "CentOS 7.4 - Docker ready",
    "artifact_version": "7.4.1804",
    "ssh_username": "vagrant",
    "ssh_password": "vagrant",
    "disk_size": "10240"
  },

  "builders": [
    {
      "name": "centos-{{user `redhat_release`}}",
      "type": "virtualbox-iso",
      "vm_name": "packer-centos-vm",

      "boot_wait": "10s",
      "disk_size": "{{user `disk_size`}}",
      "guest_os_type": "RedHat_64",
      "http_directory": "http",

      "iso_url": "{{user `iso_url`}}",
      "iso_checksum": "{{user `iso_checksum`}}",
      "iso_checksum_type": "{{user `iso_checksum_type`}}",
      "guest_additions_path": "VBoxGuestAdditions.iso",

      "boot_command": [
        "<tab> text ks=http://{{ .HTTPIP }}:{{ .HTTPPort }}/vagrant.ks<enter><wait>"
      ],

      "shutdown_command": "sudo -S /sbin/halt -h -p",
      "shutdown_timeout" : "5m",

      "ssh_wait_timeout": "15m",
      "ssh_username": "{{user `ssh_username`}}",
      "ssh_password": "{{user `ssh_password`}}",
      "ssh_port": 22,
      "ssh_pty": true,

      "output_directory": "builds",

      "vboxmanage": [
        [  "modifyvm",  "{{.Name}}",  "--memory",  "1024" ],
        [  "modifyvm",  "{{.Name}}",  "--cpus",  "2" ]
      ],
      "hard_drive_interface": "sata",
      "virtualbox_version_file": ".vbox_version",

      "export_opts":
      [
        "--manifest",
        "--vsys", "0",
        "--description", "{{user `artifact_description`}}",
        "--version", "{{user `artifact_version`}}"
      ]

    }
  ],

  "post-processors": [
    {
      "output": "centos-{{user `redhat_release`}}-docker.box",
      "compression_level": "6",
      "type": "vagrant"
    }
  ],

  "provisioners": [
    {
      "type": "shell",
      "execute_command": "{{.Vars}} sudo -S -E bash '{{.Path}}'",
      "start_retry_timeout": "1m",
      "expect_disconnect": true,
      "pause_before": "5s",
      "override": {
        "centos-{{user `redhat_release`}}": {
          "scripts": [
            "scripts/base.sh",
            "scripts/vagrant.sh",
            "scripts/virtualbox.sh",
            "scripts/cleanup.sh"
          ]
        }
      }
    },
    {
      "type": "ansible",
      "playbook_file": "./ansible/site.yml",
      "extra_arguments": [
        "--diff"
      ]
    }
  ]
}
